/******************************************************************************/
/***   Copy & replace below to config.js                                    ***/
        groundTextureUrl: 'curbLines/jb_office-06.09.2017/jb_office_v3.png',
		groundTotalTransX: 171.557,
		groundTotalTransY: -15.3869,
		groundTotalWidth: 517.925,
		groundTotalDepth: 753.468,
